{
    "Project": {
        "Name": "ABC Electronics",
        "Samples": [
            {
                "FamilyName": "XYZ Technologies",
                "ProductName": "PowerMCU Y2",
                "Name": "POR 1",
                "Id": 1
            },
            {
                "FamilyName": "XYZ Technologies",
                "ProductName": "Microchip X5",
                "Name": "POR 2",
                "Id": 2
            },
            {
                "FamilyName": "XYZ Technologies",
                "ProductName": "SmartChip W8",
                "Name": "POR 3",
                "Id": 3
            },
            {
                "FamilyName": "XYZ Technologies",
                "ProductName": "Microchip X13",
                "Name": "POR 4",
                "Id": 4
            },
            {
                "FamilyName": "XYZ Technologies",
                "ProductName": "PowerMCU Y16",
                "Name": "POR 5",
                "Id": 5
            }
        ],
        "InputConditions": [
            {
                "Parameter": "Operating Humidity",
                "Min": 10,
                "Typical": 50,
                "Max": 90,
                "TimeBetweenPoints": 1,
                "Id": 12
            },
            {
                "Parameter": "Operating Altitude",
                "Min": 0,
                "Typical": 1000,
                "Max": 5000,
                "TimeBetweenPoints": 1,
                "Id": 15
            },
            {
                "Parameter": "Power Consumption",
                "Min": 100,
                "Typical": 500,
                "Max": 1000,
                "TimeBetweenPoints": 0.5,
                "Id": 11
            },
            {
                "Parameter": "I2C Clock Speed",
                "Min": 10000,
                "Typical": 400000,
                "Max": 1000000,
                "TimeBetweenPoints": 0.2,
                "Id": 18
            },
            {
                "Parameter": "Number of PWM Channels",
                "Min": 2,
                "Typical": 4,
                "Max": 8,
                "TimeBetweenPoints": 0.5,
                "Id": 16
            },
            {
                "Parameter": "SPI Clock Speed",
                "Min": 10000,
                "Typical": 1000000,
                "Max": 10000000,
                "TimeBetweenPoints": 0.5,
                "Id": 19
            },
            {
                "Parameter": "Operating Voltage",
                "Min": 2.7,
                "Typical": 3.3,
                "Max": 3.6,
                "TimeBetweenPoints": 0.1,
                "Id": 1
            },
            {
                "Parameter": "Digital Input Voltage",
                "Min": 0,
                "Typical": 3.3,
                "Max": 5,
                "TimeBetweenPoints": 0.1,
                "Id": 13
            },
            {
                "Parameter": "Number of GPIO Pins",
                "Min": 10,
                "Typical": 20,
                "Max": 40,
                "TimeBetweenPoints": 0.5,
                "Id": 6
            },
            {
                "Parameter": "UART Interfaces",
                "Min": 1,
                "Typical": 2,
                "Max": 4,
                "TimeBetweenPoints": 0.2,
                "Id": 7
            },
            {
                "Parameter": "SPI Interfaces",
                "Min": 1,
                "Typical": 2,
                "Max": 4,
                "TimeBetweenPoints": 0.2,
                "Id": 9
            },
            {
                "Parameter": "Analog Output Voltage",
                "Min": 0,
                "Typical": 2.5,
                "Max": 5,
                "TimeBetweenPoints": 0.2,
                "Id": 14
            },
            {
                "Parameter": "ADC Sampling Rate",
                "Min": 1000,
                "Typical": 10000,
                "Max": 100000,
                "TimeBetweenPoints": 0.1,
                "Id": 20
            },
            {
                "Parameter": "I2C Interfaces",
                "Min": 1,
                "Typical": 2,
                "Max": 4,
                "TimeBetweenPoints": 0.1,
                "Id": 8
            },
            {
                "Parameter": "ADC Resolution",
                "Min": 8,
                "Typical": 10,
                "Max": 12,
                "TimeBetweenPoints": 0.1,
                "Id": 10
            }
        ],
        "Id": 2
    },
    "TestPointCollections": [
        {
            "InputConditionId": 12,
            "SampleIds": [
                5,
                1,
                3
            ],
            "TestPoints": [
                {
                    "Value": 10,
                    "Unit": null
                },
                {
                    "Value": 20,
                    "Unit": null
                },
                {
                    "Value": 30,
                    "Unit": null
                },
                {
                    "Value": 40,
                    "Unit": null
                },
                {
                    "Value": 50,
                    "Unit": null
                },
                {
                    "Value": 60,
                    "Unit": null
                },
                {
                    "Value": 70,
                    "Unit": null
                },
                {
                    "Value": 80,
                    "Unit": null
                },
                {
                    "Value": 90,
                    "Unit": null
                }
            ],
            "Id": 1
        },
        {
            "InputConditionId": 12,
            "SampleIds": [
                4,
                2
            ],
            "TestPoints": [
                {
                    "Value": 10,
                    "Unit": null
                },
                {
                    "Value": 20,
                    "Unit": null
                },
                {
                    "Value": 30,
                    "Unit": null
                },
                {
                    "Value": 40,
                    "Unit": null
                },
                {
                    "Value": 50,
                    "Unit": null
                },
                {
                    "Value": 60,
                    "Unit": null
                },
                {
                    "Value": 70,
                    "Unit": null
                },
                {
                    "Value": 80,
                    "Unit": null
                },
                {
                    "Value": 90,
                    "Unit": null
                }
            ],
            "Id": 2
        },
        {
            "InputConditionId": 15,
            "SampleIds": [
                1,
                4,
                5,
                2
            ],
            "TestPoints": [
                {
                    "Value": 0,
                    "Unit": null
                },
                {
                    "Value": 5000,
                    "Unit": null
                }
            ],
            "Id": 3
        },
        {
            "InputConditionId": 15,
            "SampleIds": [
                3
            ],
            "TestPoints": [
                {
                    "Value": 0,
                    "Unit": null
                },
                {
                    "Value": 833.3,
                    "Unit": null
                },
                {
                    "Value": 1666.7,
                    "Unit": null
                },
                {
                    "Value": 2500,
                    "Unit": null
                },
                {
                    "Value": 3333.3,
                    "Unit": null
                },
                {
                    "Value": 4166.7,
                    "Unit": null
                },
                {
                    "Value": 5000,
                    "Unit": null
                }
            ],
            "Id": 4
        },
        {
            "InputConditionId": 11,
            "SampleIds": [
                2,
                3,
                4
            ],
            "TestPoints": [
                {
                    "Value": 100,
                    "Unit": null
                },
                {
                    "Value": 280,
                    "Unit": null
                },
                {
                    "Value": 460,
                    "Unit": null
                },
                {
                    "Value": 640,
                    "Unit": null
                },
                {
                    "Value": 820,
                    "Unit": null
                },
                {
                    "Value": 1000,
                    "Unit": null
                }
            ],
            "Id": 5
        },
        {
            "InputConditionId": 11,
            "SampleIds": [
                1
            ],
            "TestPoints": [
                {
                    "Value": 100,
                    "Unit": null
                },
                {
                    "Value": 250,
                    "Unit": null
                },
                {
                    "Value": 400,
                    "Unit": null
                },
                {
                    "Value": 550,
                    "Unit": null
                },
                {
                    "Value": 700,
                    "Unit": null
                },
                {
                    "Value": 850,
                    "Unit": null
                },
                {
                    "Value": 1000,
                    "Unit": null
                }
            ],
            "Id": 6
        },
        {
            "InputConditionId": 11,
            "SampleIds": [
                5
            ],
            "TestPoints": [
                {
                    "Value": 100,
                    "Unit": null
                },
                {
                    "Value": 164.3,
                    "Unit": null
                },
                {
                    "Value": 228.6,
                    "Unit": null
                },
                {
                    "Value": 292.9,
                    "Unit": null
                },
                {
                    "Value": 357.1,
                    "Unit": null
                },
                {
                    "Value": 421.4,
                    "Unit": null
                },
                {
                    "Value": 485.7,
                    "Unit": null
                },
                {
                    "Value": 550,
                    "Unit": null
                },
                {
                    "Value": 614.3,
                    "Unit": null
                },
                {
                    "Value": 678.6,
                    "Unit": null
                },
                {
                    "Value": 742.9,
                    "Unit": null
                },
                {
                    "Value": 807.1,
                    "Unit": null
                },
                {
                    "Value": 871.4,
                    "Unit": null
                },
                {
                    "Value": 935.7,
                    "Unit": null
                }
            ],
            "Id": 7
        },
        {
            "InputConditionId": 18,
            "SampleIds": [
                3,
                5,
                4,
                2
            ],
            "TestPoints": [
                {
                    "Value": 10000,
                    "Unit": null
                },
                {
                    "Value": 1000000,
                    "Unit": null
                }
            ],
            "Id": 8
        },
        {
            "InputConditionId": 18,
            "SampleIds": [
                1
            ],
            "TestPoints": [
                {
                    "Value": 10000,
                    "Unit": null
                },
                {
                    "Value": 151428.6,
                    "Unit": null
                },
                {
                    "Value": 292857.1,
                    "Unit": null
                },
                {
                    "Value": 434285.7,
                    "Unit": null
                },
                {
                    "Value": 575714.3,
                    "Unit": null
                },
                {
                    "Value": 717142.9,
                    "Unit": null
                },
                {
                    "Value": 858571.4,
                    "Unit": null
                },
                {
                    "Value": 1000000,
                    "Unit": null
                }
            ],
            "Id": 9
        },
        {
            "InputConditionId": 16,
            "SampleIds": [
                1,
                3,
                5,
                2
            ],
            "TestPoints": [
                {
                    "Value": 2,
                    "Unit": null
                },
                {
                    "Value": 2,
                    "Unit": null
                },
                {
                    "Value": 3,
                    "Unit": null
                },
                {
                    "Value": 3,
                    "Unit": null
                },
                {
                    "Value": 4,
                    "Unit": null
                },
                {
                    "Value": 4,
                    "Unit": null
                },
                {
                    "Value": 5,
                    "Unit": null
                },
                {
                    "Value": 5,
                    "Unit": null
                },
                {
                    "Value": 5,
                    "Unit": null
                },
                {
                    "Value": 6,
                    "Unit": null
                },
                {
                    "Value": 6,
                    "Unit": null
                },
                {
                    "Value": 7,
                    "Unit": null
                },
                {
                    "Value": 7,
                    "Unit": null
                },
                {
                    "Value": 8,
                    "Unit": null
                }
            ],
            "Id": 10
        },
        {
            "InputConditionId": 16,
            "SampleIds": [
                4
            ],
            "TestPoints": [
                {
                    "Value": 2,
                    "Unit": null
                },
                {
                    "Value": 4,
                    "Unit": null
                },
                {
                    "Value": 5,
                    "Unit": null
                },
                {
                    "Value": 6,
                    "Unit": null
                },
                {
                    "Value": 8,
                    "Unit": null
                }
            ],
            "Id": 11
        },
        {
            "InputConditionId": 19,
            "SampleIds": [
                4,
                1,
                2
            ],
            "TestPoints": [
                {
                    "Value": 10000,
                    "Unit": null
                },
                {
                    "Value": 842500,
                    "Unit": null
                },
                {
                    "Value": 1675000,
                    "Unit": null
                },
                {
                    "Value": 2507500,
                    "Unit": null
                },
                {
                    "Value": 3340000,
                    "Unit": null
                },
                {
                    "Value": 4172500,
                    "Unit": null
                },
                {
                    "Value": 5005000,
                    "Unit": null
                },
                {
                    "Value": 5837500,
                    "Unit": null
                },
                {
                    "Value": 6670000,
                    "Unit": null
                },
                {
                    "Value": 7502500,
                    "Unit": null
                },
                {
                    "Value": 8335000,
                    "Unit": null
                },
                {
                    "Value": 9167500,
                    "Unit": null
                },
                {
                    "Value": 10000000,
                    "Unit": null
                }
            ],
            "Id": 12
        },
        {
            "InputConditionId": 19,
            "SampleIds": [
                5,
                3
            ],
            "TestPoints": [
                {
                    "Value": 10000,
                    "Unit": null
                },
                {
                    "Value": 918181.8,
                    "Unit": null
                },
                {
                    "Value": 1826363.6,
                    "Unit": null
                },
                {
                    "Value": 2734545.5,
                    "Unit": null
                },
                {
                    "Value": 3642727.3,
                    "Unit": null
                },
                {
                    "Value": 4550909.1,
                    "Unit": null
                },
                {
                    "Value": 5459090.9,
                    "Unit": null
                },
                {
                    "Value": 6367272.7,
                    "Unit": null
                },
                {
                    "Value": 7275454.5,
                    "Unit": null
                },
                {
                    "Value": 8183636.4,
                    "Unit": null
                },
                {
                    "Value": 9091818.2,
                    "Unit": null
                },
                {
                    "Value": 10000000,
                    "Unit": null
                }
            ],
            "Id": 13
        },
        {
            "InputConditionId": 1,
            "SampleIds": [
                5,
                4,
                1,
                3
            ],
            "TestPoints": [
                {
                    "Value": 2.7,
                    "Unit": null
                },
                {
                    "Value": 2.8,
                    "Unit": null
                },
                {
                    "Value": 2.8,
                    "Unit": null
                },
                {
                    "Value": 2.9,
                    "Unit": null
                },
                {
                    "Value": 3,
                    "Unit": null
                },
                {
                    "Value": 3,
                    "Unit": null
                },
                {
                    "Value": 3.1,
                    "Unit": null
                },
                {
                    "Value": 3.1,
                    "Unit": null
                },
                {
                    "Value": 3.2,
                    "Unit": null
                },
                {
                    "Value": 3.3,
                    "Unit": null
                },
                {
                    "Value": 3.3,
                    "Unit": null
                },
                {
                    "Value": 3.4,
                    "Unit": null
                },
                {
                    "Value": 3.5,
                    "Unit": null
                },
                {
                    "Value": 3.5,
                    "Unit": null
                },
                {
                    "Value": 3.6,
                    "Unit": null
                }
            ],
            "Id": 14
        },
        {
            "InputConditionId": 1,
            "SampleIds": [
                2
            ],
            "TestPoints": [
                {
                    "Value": 2.7,
                    "Unit": null
                },
                {
                    "Value": 2.8,
                    "Unit": null
                },
                {
                    "Value": 3,
                    "Unit": null
                },
                {
                    "Value": 3.2,
                    "Unit": null
                },
                {
                    "Value": 3.3,
                    "Unit": null
                },
                {
                    "Value": 3.4,
                    "Unit": null
                },
                {
                    "Value": 3.6,
                    "Unit": null
                }
            ],
            "Id": 15
        },
        {
            "InputConditionId": 13,
            "SampleIds": [
                2,
                1,
                5
            ],
            "TestPoints": [
                {
                    "Value": 0,
                    "Unit": null
                },
                {
                    "Value": 1.2,
                    "Unit": null
                },
                {
                    "Value": 2.5,
                    "Unit": null
                },
                {
                    "Value": 3.8,
                    "Unit": null
                },
                {
                    "Value": 5,
                    "Unit": null
                }
            ],
            "Id": 16
        },
        {
            "InputConditionId": 13,
            "SampleIds": [
                3
            ],
            "TestPoints": [
                {
                    "Value": 0,
                    "Unit": null
                },
                {
                    "Value": 1.7,
                    "Unit": null
                },
                {
                    "Value": 3.3,
                    "Unit": null
                },
                {
                    "Value": 5,
                    "Unit": null
                }
            ],
            "Id": 17
        },
        {
            "InputConditionId": 13,
            "SampleIds": [
                4
            ],
            "TestPoints": [
                {
                    "Value": 0,
                    "Unit": null
                },
                {
                    "Value": 0.4,
                    "Unit": null
                },
                {
                    "Value": 0.8,
                    "Unit": null
                },
                {
                    "Value": 1.2,
                    "Unit": null
                },
                {
                    "Value": 1.5,
                    "Unit": null
                },
                {
                    "Value": 1.9,
                    "Unit": null
                },
                {
                    "Value": 2.3,
                    "Unit": null
                },
                {
                    "Value": 2.7,
                    "Unit": null
                },
                {
                    "Value": 3.1,
                    "Unit": null
                },
                {
                    "Value": 3.5,
                    "Unit": null
                },
                {
                    "Value": 3.8,
                    "Unit": null
                },
                {
                    "Value": 4.2,
                    "Unit": null
                },
                {
                    "Value": 4.6,
                    "Unit": null
                }
            ],
            "Id": 18
        },
        {
            "InputConditionId": 6,
            "SampleIds": [
                1,
                2
            ],
            "TestPoints": [
                {
                    "Value": 10,
                    "Unit": null
                },
                {
                    "Value": 13,
                    "Unit": null
                },
                {
                    "Value": 15,
                    "Unit": null
                },
                {
                    "Value": 18,
                    "Unit": null
                },
                {
                    "Value": 21,
                    "Unit": null
                },
                {
                    "Value": 24,
                    "Unit": null
                },
                {
                    "Value": 26,
                    "Unit": null
                },
                {
                    "Value": 29,
                    "Unit": null
                },
                {
                    "Value": 32,
                    "Unit": null
                },
                {
                    "Value": 35,
                    "Unit": null
                },
                {
                    "Value": 37,
                    "Unit": null
                },
                {
                    "Value": 40,
                    "Unit": null
                }
            ],
            "Id": 19
        },
        {
            "InputConditionId": 6,
            "SampleIds": [
                3,
                4
            ],
            "TestPoints": [
                {
                    "Value": 10,
                    "Unit": null
                },
                {
                    "Value": 14,
                    "Unit": null
                },
                {
                    "Value": 18,
                    "Unit": null
                },
                {
                    "Value": 21,
                    "Unit": null
                },
                {
                    "Value": 25,
                    "Unit": null
                },
                {
                    "Value": 29,
                    "Unit": null
                },
                {
                    "Value": 32,
                    "Unit": null
                },
                {
                    "Value": 36,
                    "Unit": null
                },
                {
                    "Value": 40,
                    "Unit": null
                }
            ],
            "Id": 20
        },
        {
            "InputConditionId": 6,
            "SampleIds": [
                5
            ],
            "TestPoints": [
                {
                    "Value": 10,
                    "Unit": null
                },
                {
                    "Value": 13,
                    "Unit": null
                },
                {
                    "Value": 15,
                    "Unit": null
                },
                {
                    "Value": 18,
                    "Unit": null
                },
                {
                    "Value": 21,
                    "Unit": null
                },
                {
                    "Value": 24,
                    "Unit": null
                },
                {
                    "Value": 26,
                    "Unit": null
                },
                {
                    "Value": 29,
                    "Unit": null
                },
                {
                    "Value": 32,
                    "Unit": null
                },
                {
                    "Value": 35,
                    "Unit": null
                },
                {
                    "Value": 37,
                    "Unit": null
                },
                {
                    "Value": 40,
                    "Unit": null
                }
            ],
            "Id": 21
        },
        {
            "InputConditionId": 7,
            "SampleIds": [
                5,
                4,
                1,
                3
            ],
            "TestPoints": [
                {
                    "Value": 1,
                    "Unit": null
                },
                {
                    "Value": 4,
                    "Unit": null
                }
            ],
            "Id": 22
        },
        {
            "InputConditionId": 7,
            "SampleIds": [
                2
            ],
            "TestPoints": [
                {
                    "Value": 1,
                    "Unit": null
                },
                {
                    "Value": 1,
                    "Unit": null
                },
                {
                    "Value": 1,
                    "Unit": null
                },
                {
                    "Value": 2,
                    "Unit": null
                },
                {
                    "Value": 2,
                    "Unit": null
                },
                {
                    "Value": 2,
                    "Unit": null
                },
                {
                    "Value": 2,
                    "Unit": null
                },
                {
                    "Value": 3,
                    "Unit": null
                },
                {
                    "Value": 3,
                    "Unit": null
                },
                {
                    "Value": 3,
                    "Unit": null
                },
                {
                    "Value": 3,
                    "Unit": null
                },
                {
                    "Value": 4,
                    "Unit": null
                },
                {
                    "Value": 4,
                    "Unit": null
                }
            ],
            "Id": 23
        },
        {
            "InputConditionId": 9,
            "SampleIds": [
                5
            ],
            "TestPoints": [
                {
                    "Value": 1,
                    "Unit": null
                },
                {
                    "Value": 1,
                    "Unit": null
                },
                {
                    "Value": 2,
                    "Unit": null
                },
                {
                    "Value": 2,
                    "Unit": null
                },
                {
                    "Value": 2,
                    "Unit": null
                },
                {
                    "Value": 2,
                    "Unit": null
                },
                {
                    "Value": 3,
                    "Unit": null
                },
                {
                    "Value": 3,
                    "Unit": null
                },
                {
                    "Value": 3,
                    "Unit": null
                },
                {
                    "Value": 4,
                    "Unit": null
                },
                {
                    "Value": 4,
                    "Unit": null
                }
            ],
            "Id": 24
        },
        {
            "InputConditionId": 9,
            "SampleIds": [
                2,
                1
            ],
            "TestPoints": [
                {
                    "Value": 1,
                    "Unit": null
                },
                {
                    "Value": 2,
                    "Unit": null
                },
                {
                    "Value": 3,
                    "Unit": null
                },
                {
                    "Value": 4,
                    "Unit": null
                }
            ],
            "Id": 25
        },
        {
            "InputConditionId": 9,
            "SampleIds": [
                3
            ],
            "TestPoints": [
                {
                    "Value": 1,
                    "Unit": null
                },
                {
                    "Value": 1,
                    "Unit": null
                },
                {
                    "Value": 2,
                    "Unit": null
                },
                {
                    "Value": 2,
                    "Unit": null
                },
                {
                    "Value": 2,
                    "Unit": null
                },
                {
                    "Value": 2,
                    "Unit": null
                },
                {
                    "Value": 3,
                    "Unit": null
                },
                {
                    "Value": 3,
                    "Unit": null
                },
                {
                    "Value": 3,
                    "Unit": null
                },
                {
                    "Value": 4,
                    "Unit": null
                },
                {
                    "Value": 4,
                    "Unit": null
                }
            ],
            "Id": 26
        },
        {
            "InputConditionId": 9,
            "SampleIds": [
                4
            ],
            "TestPoints": [
                {
                    "Value": 1,
                    "Unit": null
                },
                {
                    "Value": 2,
                    "Unit": null
                },
                {
                    "Value": 2,
                    "Unit": null
                },
                {
                    "Value": 3,
                    "Unit": null
                },
                {
                    "Value": 4,
                    "Unit": null
                }
            ],
            "Id": 27
        },
        {
            "InputConditionId": 14,
            "SampleIds": [
                5,
                1,
                4,
                2,
                3
            ],
            "TestPoints": [
                {
                    "Value": 0,
                    "Unit": null
                },
                {
                    "Value": 0.6,
                    "Unit": null
                },
                {
                    "Value": 1.1,
                    "Unit": null
                },
                {
                    "Value": 1.7,
                    "Unit": null
                },
                {
                    "Value": 2.2,
                    "Unit": null
                },
                {
                    "Value": 2.8,
                    "Unit": null
                },
                {
                    "Value": 3.3,
                    "Unit": null
                },
                {
                    "Value": 3.9,
                    "Unit": null
                },
                {
                    "Value": 4.4,
                    "Unit": null
                },
                {
                    "Value": 5,
                    "Unit": null
                }
            ],
            "Id": 28
        },
        {
            "InputConditionId": 20,
            "SampleIds": [
                4
            ],
            "TestPoints": [
                {
                    "Value": 1000,
                    "Unit": null
                },
                {
                    "Value": 17500,
                    "Unit": null
                },
                {
                    "Value": 34000,
                    "Unit": null
                },
                {
                    "Value": 50500,
                    "Unit": null
                },
                {
                    "Value": 67000,
                    "Unit": null
                },
                {
                    "Value": 83500,
                    "Unit": null
                },
                {
                    "Value": 100000,
                    "Unit": null
                }
            ],
            "Id": 29
        },
        {
            "InputConditionId": 20,
            "SampleIds": [
                2,
                3,
                1
            ],
            "TestPoints": [
                {
                    "Value": 1000,
                    "Unit": null
                },
                {
                    "Value": 25750,
                    "Unit": null
                },
                {
                    "Value": 50500,
                    "Unit": null
                },
                {
                    "Value": 75250,
                    "Unit": null
                },
                {
                    "Value": 100000,
                    "Unit": null
                }
            ],
            "Id": 30
        },
        {
            "InputConditionId": 20,
            "SampleIds": [
                5
            ],
            "TestPoints": [
                {
                    "Value": 1000,
                    "Unit": null
                },
                {
                    "Value": 50500,
                    "Unit": null
                },
                {
                    "Value": 100000,
                    "Unit": null
                }
            ],
            "Id": 31
        },
        {
            "InputConditionId": 8,
            "SampleIds": [
                3,
                4,
                5,
                2
            ],
            "TestPoints": [
                {
                    "Value": 1,
                    "Unit": null
                },
                {
                    "Value": 4,
                    "Unit": null
                }
            ],
            "Id": 32
        },
        {
            "InputConditionId": 8,
            "SampleIds": [
                1
            ],
            "TestPoints": [
                {
                    "Value": 1,
                    "Unit": null
                },
                {
                    "Value": 2,
                    "Unit": null
                },
                {
                    "Value": 4,
                    "Unit": null
                }
            ],
            "Id": 33
        },
        {
            "InputConditionId": 10,
            "SampleIds": [
                3,
                4,
                5,
                2
            ],
            "TestPoints": [
                {
                    "Value": 8,
                    "Unit": null
                },
                {
                    "Value": 8,
                    "Unit": null
                },
                {
                    "Value": 9,
                    "Unit": null
                },
                {
                    "Value": 9,
                    "Unit": null
                },
                {
                    "Value": 9,
                    "Unit": null
                },
                {
                    "Value": 10,
                    "Unit": null
                },
                {
                    "Value": 10,
                    "Unit": null
                },
                {
                    "Value": 11,
                    "Unit": null
                },
                {
                    "Value": 11,
                    "Unit": null
                },
                {
                    "Value": 11,
                    "Unit": null
                },
                {
                    "Value": 12,
                    "Unit": null
                },
                {
                    "Value": 12,
                    "Unit": null
                }
            ],
            "Id": 34
        },
        {
            "InputConditionId": 10,
            "SampleIds": [
                1
            ],
            "TestPoints": [
                {
                    "Value": 8,
                    "Unit": null
                },
                {
                    "Value": 8,
                    "Unit": null
                },
                {
                    "Value": 9,
                    "Unit": null
                },
                {
                    "Value": 9,
                    "Unit": null
                },
                {
                    "Value": 9,
                    "Unit": null
                },
                {
                    "Value": 10,
                    "Unit": null
                },
                {
                    "Value": 10,
                    "Unit": null
                },
                {
                    "Value": 11,
                    "Unit": null
                },
                {
                    "Value": 11,
                    "Unit": null
                },
                {
                    "Value": 11,
                    "Unit": null
                },
                {
                    "Value": 12,
                    "Unit": null
                },
                {
                    "Value": 12,
                    "Unit": null
                }
            ],
            "Id": 35
        }
    ]
}